module project-generate-code

go 1.22.0

require (
	github.com/cockroachdb/errors v1.11.1
	github.com/pkg/errors v0.9.1
	github.com/sirupsen/logrus v1.9.3
)

require (
	github.com/cockroachdb/logtags v0.0.0-20230118201751-21c54148d20b // indirect
	github.com/cockroachdb/redact v1.1.5 // indirect
	github.com/getsentry/sentry-go v0.18.0 // indirect
	github.com/gogo/protobuf v1.3.2 // indirect
	github.com/kr/pretty v0.3.1 // indirect
	github.com/kr/text v0.2.0 // indirect
	github.com/rogpeppe/go-internal v1.9.0 // indirect
	golang.org/x/sys v0.5.0 // indirect
	golang.org/x/text v0.7.0 // indirect
)
